<?xml version="1.0" encoding="utf-8"?>
<!-- Generator: Adobe Illustrator 20.1.0, SVG Export Plug-In . SVG Version: 6.00 Build 0)  -->
<svg version="1.1" id="Layer_1" xmlns="http://www.w3.org/2000/svg" xmlns:xlink="http://www.w3.org/1999/xlink" x="0px" y="0px"
	 viewBox="0 0 72.8 73" style="enable-background:new 0 0 72.8 73;" xml:space="preserve">
<style type="text/css">
	.st0{filter:url(#Rectangle_84);}
	.st1{opacity:0.1;fill:#875FFF;enable-background:new    ;}
	.st2{fill:#8056FF;}
</style>
<filter  filterUnits="userSpaceOnUse" height="130" id="Rectangle_84" width="133" x="0" y="0">
	<feOffset  dy="10" input="SourceAlpha"></feOffset>
	<feGaussianBlur  result="blur" stdDeviation="10"></feGaussianBlur>
	<feFlood  flood-color="#f5e3f9" flood-opacity="0.11"></feFlood>
	<feComposite  in2="blur" operator="in"></feComposite>
	<feComposite  in="SourceGraphic" operator="over"></feComposite>
</filter>
<g id="Group_1841" transform="translate(-310 -1995)">
	<g transform="matrix(1, 0, 0, 1, 310, 1995)" class="st0">
		<path class="st1" d="M14.9,1.5h43c8.3,0,15,6.7,15,15v40c0,8.3-6.7,15-15,15h-43c-8.3,0-15-6.7-15-15v-40
			C-0.1,8.2,6.6,1.5,14.9,1.5z"/>
	</g>
	<g id="notes" transform="translate(362 2031)">
		<g id="Group_15" transform="translate(9.715 11.334)">
			<g id="Group_14">
				<path id="Path_17" class="st2" d="M-14.7-18.5h-14.6c-0.4,0-0.8,0.4-0.8,0.8c0,0.4,0.4,0.8,0.8,0.8h14.6c0.4,0,0.8-0.4,0.8-0.8
					C-13.9-18.1-14.3-18.5-14.7-18.5L-14.7-18.5z"/>
			</g>
		</g>
		<g id="Group_17" transform="translate(3.238 29.144)">
			<g id="Group_16">
				<path id="Path_18" class="st2" d="M-27.7-18.5c-1.3,0-2.4,1.1-2.4,2.4c0,1.3,1.1,2.4,2.4,2.4c1.3,0,2.4-1.1,2.4-2.4l0,0
					C-25.2-17.4-26.3-18.5-27.7-18.5z M-27.7-15.3c-0.4,0-0.8-0.4-0.8-0.8s0.4-0.8,0.8-0.8s0.8,0.4,0.8,0.8c0,0,0,0,0,0
					C-26.8-15.6-27.2-15.3-27.7-15.3z"/>
			</g>
		</g>
		<g id="Group_19" transform="translate(3.238 22.667)">
			<g id="Group_18">
				<path id="Path_19" class="st2" d="M-27.7-18.5c-1.3,0-2.4,1.1-2.4,2.4c0,1.3,1.1,2.4,2.4,2.4c1.3,0,2.4-1.1,2.4-2.4l0,0
					C-25.2-17.4-26.3-18.5-27.7-18.5z M-27.7-15.3c-0.4,0-0.8-0.4-0.8-0.8s0.4-0.8,0.8-0.8s0.8,0.4,0.8,0.8c0,0,0,0,0,0
					C-26.8-15.6-27.2-15.3-27.7-15.3z"/>
			</g>
		</g>
		<g id="Group_21" transform="translate(3.238 16.191)">
			<g id="Group_20">
				<path id="Path_20" class="st2" d="M-27.7-18.5c-1.3,0-2.4,1.1-2.4,2.4c0,1.3,1.1,2.4,2.4,2.4s2.4-1.1,2.4-2.4
					C-25.2-17.4-26.3-18.5-27.7-18.5z M-27.7-15.3c-0.4,0-0.8-0.4-0.8-0.8c0-0.4,0.4-0.8,0.8-0.8c0.4,0,0.8,0.4,0.8,0.8l0,0
					C-26.8-15.6-27.2-15.3-27.7-15.3z"/>
			</g>
		</g>
		<g id="Group_23" transform="translate(3.238 9.715)">
			<g id="Group_22">
				<path id="Path_21" class="st2" d="M-27.7-18.5c-1.3,0-2.4,1.1-2.4,2.4c0,1.3,1.1,2.4,2.4,2.4s2.4-1.1,2.4-2.4
					C-25.2-17.4-26.3-18.5-27.7-18.5z M-27.7-15.3c-0.4,0-0.8-0.4-0.8-0.8c0-0.4,0.4-0.8,0.8-0.8c0.4,0,0.8,0.4,0.8,0.8c0,0,0,0,0,0
					C-26.8-15.6-27.2-15.3-27.7-15.3z"/>
			</g>
		</g>
		<g id="Group_25">
			<g id="Group_24">
				<path id="Path_22" class="st2" d="M4.5-10.4c-1.1,0-2.2,0.4-3,1.2l-2.2,2.2l-0.2,0.2v-6.1c0-1.3-1.1-2.4-2.4-2.4h-4.2
					c-0.3-1-1.3-1.6-2.3-1.6h-2.9c-0.9-1.5-2.9-2.1-4.4-1.2c-0.5,0.3-0.9,0.7-1.2,1.2h-2.9c-1,0-1.9,0.7-2.3,1.6h-4.2
					c-1.3,0-2.4,1.1-2.4,2.4v30.8c0,1.3,1.1,2.4,2.4,2.4h24.3c1.3,0,2.4-1.1,2.4-2.4V5.3l6.2-6.2l0,0l0,0l2.2-2.2
					c1.7-1.7,1.7-4.3,0-6C6.7-9.9,5.6-10.4,4.5-10.4L4.5-10.4z M-22-14.5c0-0.4,0.4-0.8,0.8-0.8l0,0h3.4c0.3,0,0.6-0.2,0.8-0.5
					c0.3-0.8,1.2-1.3,2-1c0.5,0.2,0.8,0.5,1,1c0.1,0.3,0.4,0.5,0.8,0.5h3.4c0.4,0,0.8,0.4,0.8,0.8v0.8h-13V-14.5z M-2.6,17.9
					c0,0.4-0.4,0.8-0.8,0.8l0,0h-24.3c-0.4,0-0.8-0.4-0.8-0.8l0,0v-30.8c0-0.4,0.4-0.8,0.8-0.8h4v0.8c0,0.4,0.4,0.8,0.8,0.8h14.6
					c0.4,0,0.8-0.4,0.8-0.8v-0.8h4c0.4,0,0.8,0.4,0.8,0.8v7.8L-7-0.6c-0.1-0.1-0.2-0.1-0.4-0.1h-12.1c-0.4,0-0.8,0.3-0.8,0.8
					c0,0.4,0.3,0.8,0.8,0.8c0,0,0,0,0.1,0h11l-4.9,4.9h-6.1c-0.4,0-0.8,0.4-0.8,0.8c0,0.4,0.4,0.8,0.8,0.8h5.4l-1.2,4.9h-4.2
					c-0.4,0-0.8,0.3-0.8,0.8c0,0.4,0.3,0.8,0.8,0.8c0,0,0,0,0.1,0h4.9c0.1,0,0.1,0,0.2,0l6.5-1.6c0,0,0,0,0.1,0
					c0.1,0,0.2-0.1,0.3-0.2c0,0,0,0,0.1,0l5.1-5.1L-2.6,17.9L-2.6,17.9z M-12.5,7.5c1.6,0.5,2.8,1.7,3.3,3.3l-4.4,1.1L-12.5,7.5z
					 M-7.8,9.9c-0.7-1.7-2-3-3.7-3.7L-0.1-5.2l3.7,3.7L-7.8,9.9z M6.4-4.3L4.7-2.6L1-6.4L2.7-8c1-1,2.7-1,3.7,0
					C7.4-6.9,7.4-5.3,6.4-4.3L6.4-4.3z"/>
			</g>
		</g>
	</g>
</g>
</svg>
